module github.com/giulianobr/mullvad-ping

go 1.22

require github.com/prometheus-community/pro-bing v0.4.0

require (
	github.com/google/uuid v1.6.0 // indirect
	golang.org/x/net v0.25.0 // indirect
	golang.org/x/sync v0.7.0 // indirect
	golang.org/x/sys v0.20.0 // indirect
)
